C:\Users\PC\Documents\NetBeansProjects\Solemne1\src\main\java\root\services\AppConfig.java
C:\Users\PC\Documents\NetBeansProjects\Solemne1\src\main\java\com\mycompany\solemne1\JAXRSConfiguration.java
C:\Users\PC\Documents\NetBeansProjects\Solemne1\src\main\java\root\services\Dolar.java
C:\Users\PC\Documents\NetBeansProjects\Solemne1\src\main\java\com\mycompany\solemne1\resources\JavaEE8Resource.java
